Introduction to Natural Language Processing for Public Policy Analyses
…
pis <- 
  pis |> 
  mutate(pi_names = str_split(pi_names, ";")) |> 
  unnest(pi_names) |> 
  filter(str_trim(pi_names) != "") |> 
  
  mutate(pi_names = str_replace(pi_names, " \\(contact\\)", "")) |> 
  
  mutate(pi_names = format_reverse(pi_names))

pis

parse_names(pis$pi_names)

# A tibble: 100 × 44
   APPLICATION…¹ ABSTR…² ACTIV…³ ADMIN…⁴ APPLI…⁵ ARRA_…⁶ AWARD…⁷ BUDGE…⁸ BUDGE…⁹ CFDA_…˟ CORE_…˟ ED_IN…˟ FOA_N…˟ FULL_…˟ FUNDI…˟ FUNDI…˟ FY    IC_NAME
   <chr>         <chr>   <chr>   <chr>   <chr>   <chr>   <chr>   <chr>   <chr>   <chr>   <chr>   <chr>   <chr>   <chr>   <chr>   <chr>   <chr> <chr>  
 1 8693991       "Metha… P50     DA      5       N       06/30/… 07/01/… 06/30/… ""      P50DA0… ""      PAR-10… 5P50DA… "NIDA:… Resear… 2014  NATION…
 2 8693362       " Proj… R01     GM      2       N       05/27/… 06/01/… 04/30/… "859"   R01GM0… ""      PA-11-… 2R01GM… "NIGMS… Resear… 2014  NATION…
 3 8607498       "    D… R21     AI      5       N       01/03/… 02/01/… 01/31/… "855"   R21AI1… "SCHOO… PA-11-… 5R21AI… "NIAID… Resear… 2014  NATION…
 4 8697008       "    D… K01     AI      5       N       07/11/… 08/01/… 07/31/… "855"   K01AI1… "SCHOO… PA-11-… 5K01AI… "NIAID… Other … 2014  NATION…
 5 8725943       "Antig… P01     CA      7       N       09/19/… 09/01/… 08/31/… ""      P01CA0… ""      PAR-09… 7P01CA… "NCI:7… Resear… 2014  NATION…
 6 8574224       "    D… R01     MH      2       N       03/21/… 05/01/… 04/30/… "242"   R01MH0… "SCHOO… PA-11-… 2R01MH… "NIMH:… Resear… 2014  NATION…
 7 8716060       "The g… P20     GM      2       N       05/27/… 06/01/… 04/30/… ""      P20GM1… ""      PAR-12… 2P20GM… "NIGMS… Resear… 2014  NATION…
 8 8692071       "    D… R21     CA      1       N       02/19/… 04/01/… 03/31/… "395"   R21CA1… ""      PAR-13… 1R21CA… "NCI:2… Resear… 2014  NATION…
 9 8644130       "   DE… R01     HL      5       N       03/15/… 04/01/… 03/31/… "837"   R01HL0… "SCHOO… PA-10-… 5R01HL… "NHLBI… Resear… 2014  NATION…
10 8702828       "    D… R21     CA      1       N       08/27/… 09/01/… 08/31/… "394"   R21CA1… "BIOME… PA-12-… 1R21CA… "NCI:1… Resear… 2014  NATION…
# … with 90 more rows, 26 more variables: NIH_SPENDING_CATS <chr>, ORG_CITY <chr>, ORG_COUNTRY <chr>, ORG_DEPT <chr>, ORG_DISTRICT <chr>,
#   ORG_DUNS <chr>, ORG_FIPS <chr>, ORG_NAME <chr>, ORG_STATE <chr>, ORG_ZIPCODE <chr>, PHR <chr>, PI_IDS <chr>, PI_NAMEs <chr>,
#   PROGRAM_OFFICER_NAME <chr>, PROJECT_START <chr>, PROJECT_END <chr>, PROJECT_TERMS <chr>, PROJECT_TITLE <chr>, SERIAL_NUMBER <chr>,
#   STUDY_SECTION <chr>, STUDY_SECTION_NAME <chr>, SUBPROJECT_ID <chr>, SUFFIX <chr>, SUPPORT_YEAR <chr>, TOTAL_COST <chr>,
#   TOTAL_COST_SUB_PROJECT <chr>, and abbreviated variable names ¹​APPLICATION_ID, ²​ABSTRACT_TEXT, ³​ACTIVITY, ⁴​ADMINISTERING_IC, ⁵​APPLICATION_TYPE,
#   ⁶​ARRA_FUNDED, ⁷​AWARD_NOTICE_DATE, ⁸​BUDGET_START, ⁹​BUDGET_END, ˟​CFDA_CODE, ˟​CORE_PROJECT_NUM, ˟​ED_INST_TYPE, ˟​FOA_NUMBER, ˟​FULL_PROJECT_NUM,
#   ˟​FUNDING_ICs, ˟​FUNDING_MECHANISM
…
                    (Presidential Sig.)

                THE WHITE HOUSE,

                    October 14, 2022.

[FR Doc. 2022-22834
Filed 10-18-22; 8:45 am]
Billing code 3395-F3-P

# A tibble: 36 × 4
   source     data                                                                                                                         seq date_…¹
   <chr>      <chr>                                                                                                                      <int> <chr>  
 1 2022-22834 [Federal Register Volume 87, Number 201 (Wednesday, October 19, 2022)] [Presidential Documents] [Pages 63399-63400] From …     1 2022-1…
 2 2022-22834 87, No                                                                                                                         2 2022-1…
 3 2022-22834 201 / Wednesday, October 19, 2022 / Presidential Documents [[Page 63399]] Executive Order 14087 of October 14, 2022 Lower…     3 2022-1…
 4 2022-22834 Policy                                                                                                                         4 2022-1…
 5 2022-22834 Too many Americans face challenges paying for prescription drugs                                                               5 2022-1…
 6 2022-22834 On average, Americans pay two to three times as much as people in other countries for prescription drugs, and one in four…     6 2022-1…
 7 2022-22834 Nearly 3 in 10 American adults who take prescription drugs say that they have skipped doses, cut pills in half, or not fi…     7 2022-1…
 8 2022-22834 On July 9, 2021, I signed Executive Order 14036 (Promoting Competition in the American Economy), which directed various a…     8 2022-1…
 9 2022-22834 In response to Executive Order 14036, the Department of Health and Human Services (HHS) submitted a report to the White H…     9 2022-1…
10 2022-22834 On August 16, 2022, I signed Public Law 117-169, commonly referred to as the Inflation Reduction Act of 2022 (IRA), which…    10 2022-1…
# … with 26 more rows, and abbreviated variable name ¹​date_added

# A tibble: 22 × 4
   source     data                                                                                                                         seq date_…¹
   <chr>      <chr>                                                                                                                      <int> <chr>  
 1 2022-22834 [Federal Register Volume 87, Number 201 (Wednesday, October 19, 2022)] [Presidential Documents] [Pages 63399-63400] From …     1 2022-1…
 2 2022-22834 Presidential Documents                                                                                                         2 2022-1…
 3 2022-22834 Federal Register / Vol. 87, No. 201 / Wednesday, October 19, 2022 / Presidential Documents                                     3 2022-1…
 4 2022-22834 [[Page 63399]]                                                                                                                 4 2022-1…
 5 2022-22834 Executive Order 14087 of October 14, 2022                                                                                      5 2022-1…
 6 2022-22834 Lowering Prescription Drug Costs for Americans                                                                                 6 2022-1…
 7 2022-22834 By the authority vested in me as President by the Constitution and the laws of the United States of America, it is hereby…     7 2022-1…
 8 2022-22834 Section 1. Policy. Too many Americans face challenges paying for prescription drugs. On average, Americans pay two to thr…     8 2022-1…
 9 2022-22834 On July 9, 2021, I signed Executive Order 14036 (Promoting Competition in the American Economy), which directed various a…     9 2022-1…
10 2022-22834 On August 16, 2022, I signed Public Law 117-169, commonly referred to as the Inflation Reduction Act of 2022 (IRA), which…    10 2022-1…
# … with 12 more rows, and abbreviated variable name ¹​date_added
…
 68  :  0a 20 39 34 2d 32 39 30 2c 68 74 74 70 73 3a 2f 2f 77 77 77 2e 66 65 64 65 72 61 6c 72 65 67 69 73 74  |  . 94-290,https://www.federalregist
102  :  65 72 2e 67 6f 76 2f 64 6f 63 75 6d 65 6e 74 73 2f 66 75 6c 6c 5f 74 65 78 74 2f 74 65 78 74 2f 31 39  |  er.gov/documents/full_text/text/19
136  :  39 34 2f 30 31 2f 30 35 2f 39 34 2d 32 39 30 2e 74 78 74 2c 69 64 65 6e 74 69 66 69 65 72 3b 20 77 69  |  94/01/05/94-290.txt,identifier; wi
170  :  6c 6c 69 61 6d 2d 6a 2d 63 6c 69 6e 74 6f 6e 3b 20 6e 61 6d 65 3b 20 57 69 6c 6c 69 61 6d 20 4a 2e 20  |  lliam-j-clinton; name; William J. 
204  :  43 6c 69 6e 74 6f 6e 2c 30 31 2f 30 35 2f 31 39 39 34 2c 41 6d 65 6e 64 6d 65 6e 74 20 74 6f 20 45 78  |  Clinton,01/05/1994,Amendment to Ex
238  :  65 63 75 74 69 76 65 20 4f 72 64 65 72 20 4e 6f 2e 20 31 32 38 36 34 2c 22 22 0a 20 39 34 2d 33 32 33  |  ecutive Order No. 12864,"". 94-323
272  :  38 38 2c 68 74 74 70 73 3a 2f 2f 77 77 77 2e 66 65 64 65 72 61 6c 72 65 67 69 73 74 65 72 2e 67 6f 76  |  88,https://www.federalregister.gov
306  :  2f 64 6f 63 75 6d 65 6e 74 73 2f 66 75 6c 6c 5f 74 65 78 74 2f 74 65 78 74 2f 31 39 39 35 2f 30 31 2f  |  /documents/full_text/text/1995/01/
340  :  30 33 2f 39 34 2d 33 32 33 38 38 2e 74 78 74 2c 69 64 65 6e 74 69 66 69 65 72 3b 20 77 69 6c 6c 69 61  |  03/94-32388.txt,identifier; willia
374  :  6d 2d 6a 2d 63 6c 69 6e 74 6f 6e 3b 20 6e 61 6d 65 3b 20 57 69 6c 6c 69 61 6d 20 4a 2e 20 43 6c 69 6e  |  m-j-clinton; name; William J. Clin
408  :  74 6f 6e 2c 30 31 2f 30 33 2f 31 39 39 35 2c 41 64 6a 75 73 74 6d 65 6e 74 73 20 6f 66 20 43 65 72 74  |  ton,01/03/1995,Adjustments of Cert
442  :  61 69 6e 20 52 61 74 65 73 20 6f 66 20 50 61 79 20 61 6e 64 20 41 6c 6c 6f 77 61 6e 63 65 73 2c 22 22  |  ain Rates of Pay and Allowances,""
476  :  0a 20 39 35 2d 31 38 37 37 2c 68 74 74 70 73 3a 2f 2f 77 77 77 2e 66 65                                |  . 95-1877,https://www.fe           

# A tibble: 100 × 6
   document_number raw_text_url                                                                       president                   publi…¹ title topics
   <chr>           <chr>                                                                              <chr>                       <chr>   <chr> <lgl> 
 1 94-290          https://www.federalregister.gov/documents/full_text/text/1994/01/05/94-290.txt     identifier; william-j-clin… 01/05/… Amen… NA    
 2 94-32388        https://www.federalregister.gov/documents/full_text/text/1995/01/03/94-32388.txt   identifier; william-j-clin… 01/03/… Adju… NA    
 3 95-1877         https://www.federalregister.gov/documents/full_text/text/1995/01/24/95-1877.txt    identifier; william-j-clin… 01/24/… Amen… NA    
 4 95-1925         https://www.federalregister.gov/documents/full_text/text/1995/01/24/95-1925.txt    identifier; william-j-clin… 01/24/… Pres… NA    
 5 X95-110125      https://www.federalregister.gov/documents/full_text/text/1995/01/25/X95-110125.txt identifier; william-j-clin… 01/25/… Proh… NA    
 6 95-2687         https://www.federalregister.gov/documents/full_text/text/1995/02/01/95-2687.txt    identifier; william-j-clin… 02/01/… Amen… NA    
 7 95-3671         https://www.federalregister.gov/documents/full_text/text/1995/02/13/95-3671.txt    identifier; william-j-clin… 02/13/… Fore… NA    
 8 95-4908         https://www.federalregister.gov/documents/full_text/text/1995/02/27/95-4908.txt    identifier; william-j-clin… 02/27/… Esta… NA    
 9 95-5050         https://www.federalregister.gov/documents/full_text/text/1995/02/28/95-5050.txt    identifier; william-j-clin… 02/28/… Rele… NA    
10 95-5129         https://www.federalregister.gov/documents/full_text/text/1995/02/28/95-5129.txt    identifier; william-j-clin… 02/28/… Amen… NA    
# … with 90 more rows, and abbreviated variable name ¹​publication_date
…
dbWriteTable(con, "para_pos", df, append = TRUE)
dbDisconnect(con)

[[1]]
# A tibble: 45 × 13
   doc_id paragraph_id sentence_id token_id token     lemma     upos  xpos  feats        head_token_id dep_rel   deps  misc         
   <chr>         <int>       <int> <chr>    <chr>     <chr>     <chr> <chr> <chr>        <chr>         <chr>     <chr> <chr>        
 1 doc1              1           1 1        [         [         PUNCT -LRB- <NA>         4             punct     <NA>  SpaceAfter=No
 2 doc1              1           1 2        Federal   Federal   PROPN NNP   Number=Sing  4             compound  <NA>  <NA>         
 3 doc1              1           1 3        Register  Register  PROPN NNP   Number=Sing  4             compound  <NA>  <NA>         
 4 doc1              1           1 4        Volume    volume    PROPN NNP   Number=Sing  0             root      <NA>  <NA>         
 5 doc1              1           1 5        87        87        NUM   CD    NumType=Card 4             nummod    <NA>  SpaceAfter=No
 6 doc1              1           1 6        ,         ,         PUNCT ,     <NA>         4             punct     <NA>  <NA>         
 7 doc1              1           1 7        Number    number    NOUN  NN    Number=Sing  4             appos     <NA>  <NA>         
 8 doc1              1           1 8        201       201       NUM   CD    NumType=Card 7             nummod    <NA>  <NA>         
 9 doc1              1           1 9        (         (         PUNCT -LRB- <NA>         4             punct     <NA>  SpaceAfter=No
10 doc1              1           1 10       Wednesday Wednesday PROPN NNP   Number=Sing  4             nmod:tmod <NA>  SpaceAfter=No
# … with 35 more rows
…
[[6]]
# A tibble: 6 × 13
  doc_id paragraph_id sentence_id token_id token        lemma        upos  xpos  feats        head_token_id dep_rel  deps  misc             
  <chr>         <int>       <int> <chr>    <chr>        <chr>        <chr> <chr> <chr>        <chr>         <chr>    <chr> <chr>            
1 doc1              1           1 1        Lowering     Lower        VERB  VBG   VerbForm=Ger 0             root     <NA>   <NA>            
2 doc1              1           1 2        Prescription Prescription PROPN NNP   Number=Sing  4             compound <NA>   <NA>            
3 doc1              1           1 3        Drug         drug         PROPN NNP   Number=Sing  4             compound <NA>   <NA>            
4 doc1              1           1 4        Costs        costs        PROPN NNPS  Number=Plur  1             obj      <NA>   <NA>            
5 doc1              1           1 5        for          for          ADP   IN    <NA>         6             case     <NA>   <NA>            
6 doc1              1           1 6        Americans    Americans    PROPN NNPS  Number=Plur  4             nmod     <NA>  "SpacesAfter=\\n"

[[7]]
# A tibble: 28 × 13
   doc_id paragraph_id sentence_id token_id token     lemma     upos  xpos  feats                                      head_toke…¹ dep_rel deps  misc 
   <chr>         <int>       <int> <chr>    <chr>     <chr>     <chr> <chr> <chr>                                      <chr>       <chr>   <chr> <chr>
 1 doc1              1           1 1        By        by        ADP   IN    <NA>                                       3           case    <NA>  <NA> 
 2 doc1              1           1 2        the       the       DET   DT    Definite=Def|PronType=Art                  3           det     <NA>  <NA> 
 3 doc1              1           1 3        authority authority NOUN  NN    Number=Sing                                25          obl     <NA>  <NA> 
 4 doc1              1           1 4        vested    ves       VERB  VBD   Mood=Ind|Tense=Past|VerbForm=Fin           3           acl:re… <NA>  <NA> 
 5 doc1              1           1 5        in        in        ADP   IN    <NA>                                       6           case    <NA>  <NA> 
 6 doc1              1           1 6        me        I         PRON  PRP   Case=Acc|Number=Sing|Person=1|PronType=Prs 4           obl     <NA>  <NA> 
 7 doc1              1           1 7        as        as        ADP   IN    <NA>                                       8           case    <NA>  <NA> 
 8 doc1              1           1 8        President President PROPN NNP   Number=Sing                                4           obl     <NA>  <NA> 
 9 doc1              1           1 9        by        by        ADP   IN    <NA>                                       11          case    <NA>  <NA> 
10 doc1              1           1 10       the       the       DET   DT    Definite=Def|PronType=Art                  11          det     <NA>  <NA> 
# … with 18 more rows, and abbreviated variable name ¹​head_token_id

[[8]]
# A tibble: 80 × 13
   doc_id paragraph_id sentence_id token_id token      lemma     upos  xpos  feats        head_token_id dep_rel  deps  misc         
   <chr>         <int>       <int> <chr>    <chr>      <chr>     <chr> <chr> <chr>        <chr>         <chr>    <chr> <chr>        
 1 doc1              1           1 1        Section    section   NOUN  NN    Number=Sing  0             root     <NA>  <NA>         
 2 doc1              1           1 2        1          1         NUM   CD    NumType=Card 1             nummod   <NA>  SpaceAfter=No
 3 doc1              1           1 3        .          .         PUNCT .     <NA>         1             punct    <NA>  <NA>         
 4 doc1              1           1 4        Policy     policy    NOUN  NN    Number=Sing  1             appos    <NA>  SpaceAfter=No
 5 doc1              1           1 5        .          .         PUNCT .     <NA>         4             punct    <NA>  <NA>         
 6 doc1              1           2 1        Too        too       ADV   RB    <NA>         2             advmod   <NA>  <NA>         
 7 doc1              1           2 2        many       many      ADJ   JJ    Degree=Pos   5             amod     <NA>  <NA>         
 8 doc1              1           2 3        Americans  Americans PROPN NNPS  Number=Plur  5             compound <NA>  <NA>         
 9 doc1              1           2 4        face       face      NOUN  NN    Number=Sing  5             compound <NA>  <NA>         
10 doc1              1           2 5        challenges challenge NOUN  NNS   Number=Plur  0             root     <NA>  <NA>         
# … with 70 more rows

[[9]]
# A tibble: 89 × 13
   doc_id paragraph_id sentence_id token_id token     lemma     upos  xpos  feats                                      head_toke…¹ dep_rel deps  misc 
   <chr>         <int>       <int> <chr>    <chr>     <chr>     <chr> <chr> <chr>                                      <chr>       <chr>   <chr> <chr>
 1 doc1              1           1 1        On        on        ADP   IN    <NA>                                       2           case    <NA>  <NA> 
 2 doc1              1           1 2        July      July      PROPN NNP   Number=Sing                                8           obl     <NA>  <NA> 
 3 doc1              1           1 3        9         9         NUM   CD    NumType=Card                               2           nummod  <NA>  Spac…
 4 doc1              1           1 4        ,         ,         PUNCT ,     <NA>                                       2           punct   <NA>  <NA> 
 5 doc1              1           1 5        2021      2021      NUM   CD    NumType=Card                               2           nummod  <NA>  Spac…
 6 doc1              1           1 6        ,         ,         PUNCT ,     <NA>                                       8           punct   <NA>  <NA> 
 7 doc1              1           1 7        I         I         PRON  PRP   Case=Nom|Number=Sing|Person=1|PronType=Prs 8           nsubj   <NA>  <NA> 
 8 doc1              1           1 8        signed    sign      VERB  VBD   Mood=Ind|Tense=Past|VerbForm=Fin           0           root    <NA>  <NA> 
 9 doc1              1           1 9        Executive executive ADJ   JJ    Degree=Pos                                 10          amod    <NA>  <NA> 
10 doc1              1           1 10       Order     order     NOUN  NN    Number=Sing                                8           obj     <NA>  <NA> 
# … with 79 more rows, and abbreviated variable name ¹​head_token_id
…
